
For module: /home/user1/devel/cxt1206/control1/FOR2.ll

--------------------------------------------------------------------
|Total program instrunctions without precision | 33 instrunctions 
--------------------------------------------------------------------
|Total program instrunctions with precision    | 33 instrunctions 
--------------------------------------------------------------------
|Total program Integer OPS:                    | 3 INTOPS          
--------------------------------------------------------------------
|Total program Float OPS without precision:    | 0 FLOPS           
--------------------------------------------------------------------
|Total program Float OPS with precision:       | 0 FLOPS           
--------------------------------------------------------------------


Umbral without:  50 instrunctions 
Umbral with:  100 instrunctions

--------------------------------------------------------------------------------------------
Function        |  LOCS    |   FLOPS    |    INTOPS   |  Intruct without  |  Instruct with |
--------------------------------------------------------------------------------------------
foo:	        0 LOCS	  0 FLOPS      0 INTOPS    6 instruc     6 instruc_precis     
foo2:	        0 LOCS	  0 FLOPS      1 INTOPS    16 instruc     16 instruc_precis     
foo3:	        0 LOCS	  0 FLOPS      2 INTOPS    11 instruc     11 instruc_precis     
--------------------------------------------------------------------------------------------
