	Function 1 : 0 FLOPS
	Function 2 : 0 FLOPS
	Function 3 : 90 FLOPS
	Function 4 : 9 FLOPS
	Function 5 : 0 FLOPS
	Function 6 : 0 FLOPS
	Function 7 : 0 FLOPS
	Function 8 : 0 FLOPS
	Function 9 : 0 FLOPS
	Function 10 : 2 FLOPS
	Function 11 : 0 FLOPS
	Function 12 : 0 FLOPS
	Function 13 : 0 FLOPS
	Function 14 : 0 FLOPS
	Function 15 : 151 FLOPS
	Function 16 : 115 FLOPS
	Function 17 : 0 FLOPS
	Function 18 : 0 FLOPS
	Function 19 : 0 FLOPS
	Function 20 : 2 FLOPS
	Function 21 : 0 FLOPS
	Function 22 : 0 FLOPS
	Function 23 : 0 FLOPS
	Function 24 : 11 FLOPS
	Function 25 : 0 FLOPS
	Function 26 : 0 FLOPS
	Function 27 : 0 FLOPS
	Function 28 : 0 FLOPS
	Function 29 : 0 FLOPS
	Function 30 : 0 FLOPS
	Function 31 : 0 FLOPS
	Function 32 : 41 FLOPS
	Function 33 : 0 FLOPS
	Function 34 : 0 FLOPS
	Function 35 : 0 FLOPS
	Function 36 : 0 FLOPS
	Function 37 : 0 FLOPS
	Function 38 : 0 FLOPS
	Function 39 : 0 FLOPS
	Function 40 : 0 FLOPS
	Function 41 : 0 FLOPS
	Function 42 : 0 FLOPS
	Function 43 : 0 FLOPS
	Function 44 : 0 FLOPS
	Function 45 : 0 FLOPS
	Function 46 : 0 FLOPS
	Function 47 : 3 FLOPS
	Function 48 : 0 FLOPS
	Function 49 : 0 FLOPS
	Function 50 : 6 FLOPS
	Function 51 : 6 FLOPS
	Function 52 : 0 FLOPS
	Function 53 : 0 FLOPS
	Function 54 : 0 FLOPS
	Function 55 : 0 FLOPS
	Function 56 : 0 FLOPS
	Function 57 : 0 FLOPS
	Function 58 : 2 FLOPS
	Function 59 : 6 FLOPS
	Function 60 : 1 FLOPS
	Function 61 : 0 FLOPS
	Function 62 : 0 FLOPS
	Function 63 : 0 FLOPS
	Function 64 : 0 FLOPS
	Function 65 : 6 FLOPS
	Function 66 : 0 FLOPS
	Function 67 : 0 FLOPS
	Function 68 : 48 FLOPS
	Function 69 : 0 FLOPS
	Function 70 : 137 FLOPS
	Function 71 : 74 FLOPS
	Function 72 : 0 FLOPS
	Function 73 : 0 FLOPS
	Function 74 : 0 FLOPS
	Function 75 : 69 FLOPS
	Function 76 : 0 FLOPS
	Function 77 : 0 FLOPS
	Function 78 : 0 FLOPS
	Function 79 : 0 FLOPS
	Function 80 : 0 FLOPS
	Function 81 : 0 FLOPS
	Function 82 : 0 FLOPS
	Function 83 : 0 FLOPS
	Function 84 : 0 FLOPS
	Function 85 : 0 FLOPS
	Function 86 : 0 FLOPS
	Function 87 : 0 FLOPS
	Function 88 : 0 FLOPS
	Function 89 : 0 FLOPS
	Function 90 : 0 FLOPS
	Function 91 : 0 FLOPS
	Function 92 : 0 FLOPS
	Function 93 : 0 FLOPS
	Function 94 : 6 FLOPS
	Function 95 : 0 FLOPS
	Function 96 : 0 FLOPS
	Function 97 : 1 FLOPS
	Function 98 : 0 FLOPS
	Function 99 : 0 FLOPS
	Function 100 : 0 FLOPS
	Function 101 : 0 FLOPS
	Function 102 : 0 FLOPS
	Function 103 : 0 FLOPS
	Function 104 : 0 FLOPS
	Function 105 : 0 FLOPS
	Function 106 : 0 FLOPS
	Function 107 : 0 FLOPS
	Function 108 : 0 FLOPS
	Function 109 : 0 FLOPS
	Function 110 : 0 FLOPS
	Function 111 : 0 FLOPS
	Function 112 : 0 FLOPS
	Function 113 : 0 FLOPS
	Function 114 : 0 FLOPS
	Function 115 : 0 FLOPS
	Function 116 : 0 FLOPS
	Function 117 : 0 FLOPS
	Function 118 : 0 FLOPS
	Function 119 : 0 FLOPS
	Function 120 : 0 FLOPS
	Function 121 : 0 FLOPS
	Function 122 : 0 FLOPS
	Function 123 : 0 FLOPS
	Function 124 : 0 FLOPS
	Function 125 : 0 FLOPS
	Function 126 : 0 FLOPS
	Function 127 : 0 FLOPS
	Function 128 : 0 FLOPS
	Function 129 : 0 FLOPS
	Function 130 : 0 FLOPS
	Function 131 : 0 FLOPS
	Function 132 : 0 FLOPS
	Function 133 : 0 FLOPS
	Function 134 : 0 FLOPS
	Function 135 : 0 FLOPS
	Function 136 : 0 FLOPS
	Function 137 : 0 FLOPS
	Function 138 : 0 FLOPS
	Function 139 : 0 FLOPS
	Function 140 : 0 FLOPS
	Function 141 : 0 FLOPS
	Function 142 : 0 FLOPS
	Function 143 : 0 FLOPS
	Function 144 : 0 FLOPS
	Function 145 : 0 FLOPS
	Function 146 : 0 FLOPS
	Function 147 : 0 FLOPS
	Function 148 : 0 FLOPS
	Function 149 : 0 FLOPS
	Function 150 : 0 FLOPS
	Function 151 : 0 FLOPS
	Function 152 : 0 FLOPS
	Function 153 : 0 FLOPS
	Function 154 : 0 FLOPS
	Function 155 : 0 FLOPS
	Function 156 : 219 FLOPS
	Function 157 : 0 FLOPS
	Function 158 : 0 FLOPS
	Function 159 : 0 FLOPS
	Function 160 : 0 FLOPS
	Function 161 : 0 FLOPS
	Function 162 : 0 FLOPS
	Function 163 : 0 FLOPS
	Function 164 : 0 FLOPS
	Function 165 : 0 FLOPS
	Function 166 : 0 FLOPS
	Function 167 : 0 FLOPS
	Function 168 : 56 FLOPS
	Function 169 : 0 FLOPS
	Function 170 : 0 FLOPS
	Function 171 : 0 FLOPS
	Function 172 : 0 FLOPS
	Function 173 : 0 FLOPS
	Function 174 : 0 FLOPS
	Function 175 : 0 FLOPS
	Function 176 : 0 FLOPS
	Function 177 : 0 FLOPS
	Function 178 : 0 FLOPS
	Function 179 : 0 FLOPS
	Function 180 : 0 FLOPS
	Function 181 : 0 FLOPS
	Function 182 : 0 FLOPS
	Function 183 : 0 FLOPS
	Function 184 : 0 FLOPS
	Function 185 : 0 FLOPS
	Function 186 : 0 FLOPS
	Function 187 : 6 FLOPS
	Function 188 : 0 FLOPS
	Function 189 : 0 FLOPS
	Function 190 : 0 FLOPS
	Function 191 : 0 FLOPS
	Function 192 : 0 FLOPS
	Function 193 : 0 FLOPS
	Function 194 : 0 FLOPS
	Function 195 : 0 FLOPS
	Function 196 : 52 FLOPS
	Function 197 : 6 FLOPS
	Function 198 : 3 FLOPS
	Function 199 : 9 FLOPS
	Function 200 : 0 FLOPS
	Function 201 : 2 FLOPS
	Function 202 : 0 FLOPS
	Function 203 : 0 FLOPS
	Function 1 : 0 OPS
	Function 2 : 0 OPS
	Function 3 : 0 OPS
	Function 4 : 3 OPS
	Function 5 : 1 OPS
	Function 6 : 0 OPS
	Function 7 : 0 OPS
	Function 8 : 0 OPS
	Function 9 : 0 OPS
	Function 10 : 0 OPS
	Function 11 : 0 OPS
	Function 12 : 0 OPS
	Function 13 : 0 OPS
	Function 14 : 0 OPS
	Function 15 : 0 OPS
	Function 16 : 0 OPS
	Function 17 : 0 OPS
	Function 18 : 0 OPS
	Function 19 : 0 OPS
	Function 20 : 7 OPS
	Function 21 : 0 OPS
	Function 22 : 0 OPS
	Function 23 : 0 OPS
	Function 24 : 1 OPS
	Function 25 : 0 OPS
	Function 26 : 0 OPS
	Function 27 : 0 OPS
	Function 28 : 0 OPS
	Function 29 : 0 OPS
	Function 30 : 0 OPS
	Function 31 : 0 OPS
	Function 32 : 0 OPS
	Function 33 : 0 OPS
	Function 34 : 0 OPS
	Function 35 : 0 OPS
	Function 36 : 0 OPS
	Function 37 : 0 OPS
	Function 38 : 0 OPS
	Function 39 : 0 OPS
	Function 40 : 0 OPS
	Function 41 : 0 OPS
	Function 42 : 0 OPS
	Function 43 : 0 OPS
	Function 44 : 1 OPS
	Function 45 : 0 OPS
	Function 46 : 1 OPS
	Function 47 : 1 OPS
	Function 48 : 0 OPS
	Function 49 : 6 OPS
	Function 50 : 1 OPS
	Function 51 : 1 OPS
	Function 52 : 0 OPS
	Function 53 : 0 OPS
	Function 54 : 0 OPS
	Function 55 : 1 OPS
	Function 56 : 0 OPS
	Function 57 : 1 OPS
	Function 58 : 1 OPS
	Function 59 : 8 OPS
	Function 60 : 5 OPS
	Function 61 : 0 OPS
	Function 62 : 0 OPS
	Function 63 : 0 OPS
	Function 64 : 1 OPS
	Function 65 : 1 OPS
	Function 66 : 2 OPS
	Function 67 : 0 OPS
	Function 68 : 0 OPS
	Function 69 : 0 OPS
	Function 70 : 48 OPS
	Function 71 : 0 OPS
	Function 72 : 0 OPS
	Function 73 : 0 OPS
	Function 74 : 0 OPS
	Function 75 : 6 OPS
	Function 76 : 0 OPS
	Function 77 : 0 OPS
	Function 78 : 0 OPS
	Function 79 : 0 OPS
	Function 80 : 0 OPS
	Function 81 : 0 OPS
	Function 82 : 0 OPS
	Function 83 : 0 OPS
	Function 84 : 0 OPS
	Function 85 : 0 OPS
	Function 86 : 0 OPS
	Function 87 : 0 OPS
	Function 88 : 0 OPS
	Function 89 : 0 OPS
	Function 90 : 0 OPS
	Function 91 : 0 OPS
	Function 92 : 0 OPS
	Function 93 : 0 OPS
	Function 94 : 1 OPS
	Function 95 : 10 OPS
	Function 96 : 11 OPS
	Function 97 : 1 OPS
	Function 98 : 0 OPS
	Function 99 : 0 OPS
	Function 100 : 0 OPS
	Function 101 : 0 OPS
	Function 102 : 1 OPS
	Function 103 : 2 OPS
	Function 104 : 0 OPS
	Function 105 : 0 OPS
	Function 106 : 0 OPS
	Function 107 : 7 OPS
	Function 108 : 2 OPS
	Function 109 : 0 OPS
	Function 110 : 0 OPS
	Function 111 : 0 OPS
	Function 112 : 0 OPS
	Function 113 : 0 OPS
	Function 114 : 0 OPS
	Function 115 : 2 OPS
	Function 116 : 0 OPS
	Function 117 : 0 OPS
	Function 118 : 0 OPS
	Function 119 : 0 OPS
	Function 120 : 0 OPS
	Function 121 : 0 OPS
	Function 122 : 0 OPS
	Function 123 : 0 OPS
	Function 124 : 0 OPS
	Function 125 : 0 OPS
	Function 126 : 0 OPS
	Function 127 : 0 OPS
	Function 128 : 0 OPS
	Function 129 : 0 OPS
	Function 130 : 3 OPS
	Function 131 : 0 OPS
	Function 132 : 0 OPS
	Function 133 : 0 OPS
	Function 134 : 5 OPS
	Function 135 : 0 OPS
	Function 136 : 0 OPS
	Function 137 : 0 OPS
	Function 138 : 0 OPS
	Function 139 : 1 OPS
	Function 140 : 0 OPS
	Function 141 : 0 OPS
	Function 142 : 0 OPS
	Function 143 : 0 OPS
	Function 144 : 0 OPS
	Function 145 : 0 OPS
	Function 146 : 0 OPS
	Function 147 : 1 OPS
	Function 148 : 0 OPS
	Function 149 : 0 OPS
	Function 150 : 0 OPS
	Function 151 : 0 OPS
	Function 152 : 0 OPS
	Function 153 : 0 OPS
	Function 154 : 0 OPS
	Function 155 : 0 OPS
	Function 156 : 1 OPS
	Function 157 : 1 OPS
	Function 158 : 0 OPS
	Function 159 : 0 OPS
	Function 160 : 0 OPS
	Function 161 : 0 OPS
	Function 162 : 0 OPS
	Function 163 : 0 OPS
	Function 164 : 0 OPS
	Function 165 : 0 OPS
	Function 166 : 0 OPS
	Function 167 : 0 OPS
	Function 168 : 1 OPS
	Function 169 : 0 OPS
	Function 170 : 0 OPS
	Function 171 : 0 OPS
	Function 172 : 0 OPS
	Function 173 : 0 OPS
	Function 174 : 0 OPS
	Function 175 : 0 OPS
	Function 176 : 0 OPS
	Function 177 : 0 OPS
	Function 178 : 0 OPS
	Function 179 : 0 OPS
	Function 180 : 0 OPS
	Function 181 : 0 OPS
	Function 182 : 0 OPS
	Function 183 : 0 OPS
	Function 184 : 0 OPS
	Function 185 : 0 OPS
	Function 186 : 0 OPS
	Function 187 : 7 OPS
	Function 188 : 0 OPS
	Function 189 : 0 OPS
	Function 190 : 0 OPS
	Function 191 : 0 OPS
	Function 192 : 0 OPS
	Function 193 : 0 OPS
	Function 194 : 0 OPS
	Function 195 : 0 OPS
	Function 196 : 5 OPS
	Function 197 : 1 OPS
	Function 198 : 2 OPS
	Function 199 : 2 OPS
	Function 200 : 0 OPS
	Function 201 : 2 OPS
	Function 202 : 0 OPS
	Function 203 : 0 OPS
